<?xml version="1.0" encoding="utf-8"?>
<!-- Generator: Adobe Illustrator 16.0.0, SVG Export Plug-In . SVG Version: 6.00 Build 0)  -->
<!DOCTYPE svg PUBLIC "-//W3C//DTD SVG 1.1//EN" "http://www.w3.org/Graphics/SVG/1.1/DTD/svg11.dtd">
<svg version="1.1" id="Layer_1" xmlns="http://www.w3.org/2000/svg" xmlns:xlink="http://www.w3.org/1999/xlink" x="0px" y="0px"
	 width="59.807px" height="62.307px" viewBox="0 0 59.807 62.307" enable-background="new 0 0 59.807 62.307" xml:space="preserve">
<g>
	<path fill="#FFFFFF" d="M19.075,31.63c1.536-0.098,3.959-0.403,6.89-1.403c7.31-2.488,8.934-6.619,14.47-6.179
		c2.91,0.232,4.06,1.963,4.406,2.754c-0.614,1.07-1.58,2.533-2.402,3.444c0.295-1.196-1.273-3.085-3.907-3.085
		c-4.138,0-5.6,2.109-12.289,4.178c-2.498,0.773-4.558,1.061-6.006,1.156C19.836,32.222,19.449,31.933,19.075,31.63 M21.536,33.298
		c1.419-0.125,3.546-0.455,6.263-1.281c3.284-0.998,5.835-2.339,8.556-2.966c2.725-0.627,5.3,0.971,4.281,2.659
		c-1.182,1.953-6.673,3.756-10.731,3.756C26.867,35.466,24.012,34.679,21.536,33.298z M18.317,30.845
		c-0.047,0.003-0.093,0.004-0.14,0.004c-3.367-3.139-5.474-7.614-5.474-12.581c0-9.499,7.7-17.199,17.2-17.199
		c9.499,0,17.199,7.701,17.199,17.199c0,2.396-0.489,4.677-1.374,6.75l0.013-0.12c0,0,0.956-9.261-5.759-14.035
		c-1.238-0.881-3.226-1.294-5.498-1.173c-1.679,0.175-3.727,0.799-5.226,2.345c-1.591,1.642-2.318,5.629,0.53,7.447
		c0.686,0.438,3.619,1.571,5.043-1.356c-0.211,0.11-1.719-1.144-0.389-2.396c0.66-0.528,2.063-0.646,2.533,1.35
		c0.295,2.639-1.355,5.864-5.42,8.913C24.877,30.674,18.317,30.845,18.317,30.845z"/>
	<path fill-rule="evenodd" clip-rule="evenodd" fill="#FFFFFF" d="M6.649,50.171H4.727l0.955-2.903h0.023L6.649,50.171
		 M7.274,51.985l0.577,1.585h2.464l-3.348-9.12H4.445l-3.42,9.12h2.452l0.613-1.585H7.274z"/>
	<polyline fill="#FFFFFF" points="13.691,46.457 15.601,46.457 15.601,44.45 9.47,44.45 9.47,46.457 11.38,46.457 11.38,53.57 
		13.691,53.57 13.691,46.457 	"/>
	<polyline fill="#FFFFFF" points="18.798,44.45 16.488,44.45 16.488,53.57 21.569,53.57 21.569,51.562 18.798,51.562 18.798,44.45 	
		"/>
	<path fill-rule="evenodd" clip-rule="evenodd" fill="#FFFFFF" d="M27.561,50.171h-1.922l0.955-2.903h0.023L27.561,50.171
		 M28.185,51.985l0.578,1.585h2.464l-3.348-9.12h-2.522l-3.419,9.12h2.452l0.612-1.585H28.185z"/>
	<polyline fill="#FFFFFF" points="31.893,53.57 34.204,53.57 34.204,47.981 34.227,47.981 38.46,53.57 40.77,53.57 40.77,44.45 
		38.46,44.45 38.46,50.025 38.437,50.025 34.204,44.45 31.893,44.45 31.893,53.57 	"/>
	<polyline fill="#FFFFFF" points="45.9,46.457 47.809,46.457 47.809,44.45 41.68,44.45 41.68,46.457 43.589,46.457 43.589,53.57 
		45.9,53.57 45.9,46.457 	"/>
	<rect x="48.697" y="44.45" fill="#FFFFFF" width="2.311" height="9.12"/>
	<path fill="#FFFFFF" d="M58.782,44.667c-0.684-0.291-1.367-0.459-2.109-0.459c-1.25,0-2.512,0.557-3.385,1.475
		c-0.848,0.896-1.309,2.094-1.309,3.339c0,1.355,0.449,2.54,1.427,3.448c0.919,0.858,2.099,1.344,3.336,1.344
		c0.72,0,1.274-0.184,2.04-0.425v-2.843c-0.482,0.593-1.237,0.969-1.992,0.969c-1.438,0-2.404-1.041-2.404-2.48
		c0-1.415,0.954-2.528,2.369-2.528c0.79,0,1.557,0.351,2.027,1.005V44.667"/>
	<path fill-rule="evenodd" clip-rule="evenodd" fill="#FFFFFF" d="M4.146,61.146h0.811v-2.303H3.154v0.785h0.928
		c-0.03,0.219-0.064,0.441-0.336,0.619c-0.169,0.11-0.381,0.157-0.568,0.157c-0.317,0-0.599-0.13-0.758-0.299
		c-0.2-0.206-0.329-0.589-0.329-1.058c0-0.693,0.3-1.345,1.087-1.345c0.575,0,0.815,0.364,0.963,0.586l0.787-0.476
		c-0.194-0.252-0.729-0.957-1.826-0.957c-1.181,0-2.045,0.887-2.045,2.221c0,1.222,0.711,2.161,1.868,2.161
		c0.699,0,1.052-0.322,1.222-0.481V61.146"/>
	<path fill-rule="evenodd" clip-rule="evenodd" fill="#FFFFFF" d="M16.768,57.772c0.218,0,0.6,0.023,0.6,0.553
		c0,0.552-0.476,0.57-0.622,0.57h-0.858v-1.123H16.768 M14.848,61.146h1.039v-1.482h0.652l0.822,1.482h1.146l-0.958-1.658
		c0.282-0.105,0.852-0.311,0.852-1.145c0-0.376-0.135-0.705-0.328-0.924c-0.382-0.409-0.923-0.42-1.357-0.42h-1.867V61.146z"/>
	<path fill="#FFFFFF" d="M30.706,56.999v2.578c0,0.322-0.006,0.803-0.711,0.803c-0.259,0-0.548-0.064-0.671-0.281
		c-0.076-0.129-0.076-0.305-0.076-0.517v-2.583h-1.045v2.313c0,0.564-0.006,1.294,0.793,1.703c0.282,0.148,0.651,0.224,0.964,0.224
		c0.176,0,1.098-0.036,1.544-0.752c0.229-0.376,0.241-0.775,0.241-1.175v-2.313H30.706"/>
	<path fill-rule="evenodd" clip-rule="evenodd" fill="#FFFFFF" d="M43.437,57.761c0.3,0,0.822,0,0.822,0.605
		c0,0.641-0.47,0.652-0.858,0.652H42.78v-1.258H43.437 M41.741,61.146h1.039v-1.358h0.688c0.563,0,1.326-0.028,1.686-0.769
		c0.094-0.193,0.141-0.418,0.141-0.647c0-0.28-0.076-0.616-0.235-0.85c-0.364-0.522-0.969-0.522-1.651-0.522h-1.666V61.146z"/>
	<path fill-rule="evenodd" clip-rule="evenodd" fill="#FFFFFF" d="M57.211,59.735H56.16c0.094-0.313,0.252-0.8,0.341-1.111
		c0.059-0.211,0.116-0.428,0.17-0.64L57.211,59.735 M56.147,56.999l-1.539,4.146h1.105l0.205-0.664h1.527l0.205,0.664h1.104
		l-1.525-4.146H56.147z"/>
</g>
</svg>
